{
    "version": "1.0.0",
    "summary": "My todo application for the Elm course.",
    "repository": "https://github.com/USER/PROJECT.git",
    "license": "BSD3",
    "source-directories": [
        "."
    ],
    "exposed-modules": [],
    "dependencies": {
        "Apanatshka/elm-signal-extra": "5.6.0 <= v < 6.0.0",
        "elm-lang/core": "2.1.0 <= v < 3.0.0",
        "evancz/elm-html": "4.0.1 <= v < 5.0.0",
        "evancz/elm-http": "3.0.0 <= v < 4.0.0"
    },
    "elm-version": "0.15.1 <= v < 0.16.0"
}